Filter,Image,Iteration,Seq_Kernel,Par_Total,Par_Kernel,Par_Mem,Par_GFLOP,Par_Bandwidth,Speedup_kernel_mem,Speedup_total
darker,image00.png,0,0.002414,0.072425,0.000164,0.000702,11.194000,6.397000,2.787529,0.033331,
darker,image00.png,1,0.003668,0.075800,0.000164,0.000591,11.161000,6.378000,4.858278,0.048391,
darker,image00.png,2,0.003715,0.077651,0.000164,0.000527,11.160000,6.377000,5.376266,0.047842,
darker,image00.png,3,0.002542,0.072219,0.000165,0.000516,11.137000,6.364000,3.732746,0.035198,
darker,image00.png,4,0.002400,0.071090,0.000165,0.000697,11.147000,6.370000,2.784223,0.033760,
darker,image00.png,5,0.003661,0.073644,0.000165,0.000596,11.123000,6.356000,4.810775,0.049712,
darker,image00.png,6,0.003659,0.077429,0.000165,0.000538,11.130000,6.360000,5.204836,0.047256,
darker,image00.png,7,0.002417,0.070758,0.000165,0.000477,11.135000,6.363000,3.764798,0.034159,
darker,image00.png,8,0.002469,0.072051,0.000165,0.000694,11.104000,6.345000,2.874272,0.034267,
darker,image00.png,9,0.003661,0.074846,0.000165,0.000590,11.130000,6.360000,4.849007,0.048914,
darker,image00.png,10,0.003662,0.078278,0.000165,0.000532,11.154000,6.374000,5.253945,0.046782,
darker,image00.png,11,0.002375,0.071677,0.000165,0.000472,11.131000,6.361000,3.728414,0.033135,
darker,image00.png,12,0.002466,0.071361,0.000165,0.000696,11.143000,6.367000,2.864111,0.034557,
darker,image00.png,13,0.003661,0.073925,0.000165,0.000621,11.154000,6.374000,4.657761,0.049523,
darker,image00.png,14,0.003659,0.076764,0.000165,0.000606,11.146000,6.369000,4.745785,0.047666,
darker,image00.png,15,0.002371,0.069717,0.000165,0.000477,11.108000,6.347000,3.693146,0.034009,
darker,image00.png,16,0.002517,0.064689,0.000165,0.000699,11.145000,6.369000,2.913194,0.038909,
darker,image00.png,17,0.003663,0.073630,0.000165,0.000615,11.138000,6.365000,4.696154,0.049749,
darker,image00.png,18,0.003662,0.075269,0.000165,0.000536,11.104000,6.345000,5.223966,0.048652,
darker,image00.png,19,0.002369,0.069123,0.000165,0.000486,11.107000,6.347000,3.639017,0.034272,
darker,image01.jpg,0,0.024058,0.077827,0.000353,0.004839,51.936000,29.678000,4.633667,0.309122,
darker,image01.jpg,1,0.036400,0.077366,0.000366,0.004621,50.094000,28.625000,7.298977,0.470491,
darker,image01.jpg,2,0.036227,0.078612,0.000336,0.004642,54.649000,31.228000,7.277421,0.460833,
darker,image01.jpg,3,0.024563,0.076665,0.000390,0.003767,47.048000,26.885000,5.908828,0.320394,
darker,image01.jpg,4,0.024503,0.079104,0.000336,0.005749,54.616000,31.209000,4.026787,0.309757,
darker,image01.jpg,5,0.036376,0.077364,0.000367,0.004664,49.960000,28.549000,7.230372,0.470193,
darker,image01.jpg,6,0.036243,0.080280,0.000337,0.004614,54.517000,31.152000,7.320339,0.451457,
darker,image01.jpg,7,0.024176,0.073452,0.000388,0.003820,47.269000,27.011000,5.745247,0.329140,
darker,image01.jpg,8,0.024443,0.074439,0.000336,0.005708,54.582000,31.190000,4.044176,0.328363,
darker,image01.jpg,9,0.036389,0.077098,0.000368,0.004611,49.905000,28.517000,7.308496,0.471984,
darker,image01.jpg,10,0.036231,0.079605,0.000336,0.004620,54.579000,31.188000,7.310533,0.455135,
darker,image01.jpg,11,0.024517,0.074684,0.000388,0.003782,47.244000,26.997000,5.879376,0.328276,
darker,image01.jpg,12,0.024432,0.076600,0.000337,0.005733,54.402000,31.087000,4.025041,0.318956,
darker,image01.jpg,13,0.036376,0.078645,0.000370,0.004599,49.658000,28.376000,7.320588,0.462534,
darker,image01.jpg,14,0.036165,0.081110,0.000335,0.004618,54.752000,31.287000,7.301635,0.445876,
darker,image01.jpg,15,0.024494,0.073600,0.000388,0.003810,47.323000,27.042000,5.834683,0.332799,
darker,image01.jpg,16,0.024484,0.074644,0.000335,0.005730,54.733000,31.276000,4.036933,0.328010,
darker,image01.jpg,17,0.036546,0.072050,0.000368,0.004638,49.812000,28.464000,7.300439,0.507231,
darker,image01.jpg,18,0.036403,0.083190,0.000376,0.005543,48.843000,27.910000,6.150194,0.437589,
darker,image01.jpg,19,0.024564,0.074402,0.000389,0.003781,47.212000,26.978000,5.890647,0.330152,
darker,image02.jpg,0,0.033648,0.077822,0.000441,0.006939,58.495000,33.426000,4.559350,0.432371,
darker,image02.jpg,1,0.050028,0.079456,0.000464,0.005508,55.560000,31.749000,8.377093,0.629631,
darker,image02.jpg,2,0.050105,0.084541,0.000472,0.005233,54.714000,31.265000,8.782647,0.592671,
darker,image02.jpg,3,0.033551,0.078229,0.000480,0.004716,53.794000,30.740000,6.457082,0.428882,
darker,image02.jpg,4,0.033749,0.077706,0.000440,0.006942,58.598000,33.484000,4.571796,0.434317,
darker,image02.jpg,5,0.050026,0.079837,0.000469,0.005471,55.066000,31.466000,8.421886,0.626602,
darker,image02.jpg,6,0.050002,0.083132,0.000460,0.004981,56.154000,32.088000,9.189855,0.601477,
darker,image02.jpg,7,0.033553,0.075570,0.000478,0.004694,54.003000,30.859000,6.487432,0.443999,
darker,image02.jpg,8,0.033796,0.077984,0.000440,0.007024,58.632000,33.504000,4.527867,0.433371,
darker,image02.jpg,9,0.050001,0.080184,0.000469,0.005475,55.034000,31.448000,8.412012,0.623578,
darker,image02.jpg,10,0.049980,0.084519,0.000440,0.007075,58.582000,33.475000,6.650699,0.591346,
darker,image02.jpg,11,0.033625,0.075584,0.000472,0.004687,54.725000,31.272000,6.517736,0.444869,
darker,image02.jpg,12,0.033373,0.077994,0.000440,0.006934,58.585000,33.477000,4.525766,0.427892,
darker,image02.jpg,13,0.049938,0.079617,0.000470,0.005464,54.944000,31.396000,8.415571,0.627228,
darker,image02.jpg,14,0.049914,0.089496,0.000459,0.004782,56.166000,32.095000,9.523755,0.557723,
darker,image02.jpg,15,0.033625,0.074944,0.000481,0.004680,53.631000,30.646000,6.515210,0.448668,
darker,image02.jpg,16,0.033690,0.077886,0.000441,0.006916,58.540000,33.452000,4.579312,0.432555,
darker,image02.jpg,17,0.049779,0.079982,0.000454,0.005514,56.797000,32.455000,8.340985,0.622378,
darker,image02.jpg,18,0.049894,0.084588,0.000439,0.007065,58.807000,33.604000,6.648987,0.589847,
darker,image02.jpg,19,0.033698,0.075207,0.000479,0.004693,53.862000,30.779000,6.515468,0.448070,
darker,image03.jpg,0,0.227585,0.113855,0.002437,0.041802,72.501000,41.429000,5.144443,1.998902,
darker,image03.jpg,1,0.341137,0.108742,0.002470,0.031462,71.520000,40.869000,10.053548,3.137123,
darker,image03.jpg,2,0.340908,0.130909,0.002434,0.047331,72.576000,41.472000,6.850357,2.604160,
darker,image03.jpg,3,0.229463,0.102040,0.002479,0.028356,71.276000,40.729000,7.441641,2.248755,
darker,image03.jpg,4,0.227665,0.113767,0.002440,0.041203,72.405000,41.374000,5.216530,2.001151,
darker,image03.jpg,5,0.341177,0.109059,0.002471,0.031490,71.497000,40.855000,10.046141,3.128371,
darker,image03.jpg,6,0.340214,0.130686,0.002439,0.046893,72.456000,41.403000,6.896416,2.603293,
darker,image03.jpg,7,0.229333,0.101785,0.002472,0.028303,71.466000,40.838000,7.451925,2.253112,
darker,image03.jpg,8,0.227428,0.115329,0.002441,0.041224,72.395000,41.369000,5.208474,1.971993,
darker,image03.jpg,9,0.341185,0.108954,0.002468,0.031690,71.583000,40.905000,9.988436,3.131459,
darker,image03.jpg,10,0.340024,0.117371,0.002469,0.037273,71.569000,40.897000,8.555785,2.897002,
darker,image03.jpg,11,0.229534,0.095685,0.002473,0.028130,71.432000,40.818000,7.500376,2.398850,
darker,image03.jpg,12,0.227624,0.114688,0.002438,0.041727,72.459000,41.405000,5.153945,1.984724,
darker,image03.jpg,13,0.341382,0.108367,0.002470,0.031501,71.529000,40.874000,10.049218,3.150239,
darker,image03.jpg,14,0.340761,0.118284,0.002442,0.037845,72.361000,41.349000,8.458336,2.880871,
darker,image03.jpg,15,0.229555,0.101482,0.002465,0.028164,71.668000,40.953000,7.494695,2.262027,
darker,image03.jpg,16,0.227642,0.101576,0.002477,0.028221,71.333000,40.762000,7.415532,2.241100,
darker,image03.jpg,17,0.341267,0.102625,0.002468,0.031472,71.595000,40.911000,10.055009,3.325379,
darker,image03.jpg,18,0.339404,0.119308,0.002467,0.036962,71.632000,40.933000,8.607979,2.844772,
darker,image03.jpg,19,0.229656,0.101808,0.002480,0.028139,71.255000,40.717000,7.500441,2.255776,
darker,image04.jpg,0,0.151110,0.100983,0.001718,0.028124,68.341000,39.052000,5.063669,1.496390,
darker,image04.jpg,1,0.227311,0.092871,0.001721,0.021470,68.220000,38.983000,9.801690,2.447599,
darker,image04.jpg,2,0.226676,0.102061,0.001716,0.024331,68.427000,39.101000,8.702576,2.220985,
darker,image04.jpg,3,0.152417,0.091216,0.001717,0.018983,68.383000,39.076000,7.363140,1.670946,
darker,image04.jpg,4,0.151391,0.096617,0.001719,0.028121,68.304000,39.031000,5.073425,1.566919,
darker,image04.jpg,5,0.226940,0.092500,0.001717,0.021290,68.394000,39.082000,9.863954,2.453405,
darker,image04.jpg,6,0.226357,0.103329,0.001719,0.024826,68.311000,39.035000,8.527293,2.190643,
darker,image04.jpg,7,0.152457,0.091847,0.001718,0.019106,68.349000,39.057000,7.321216,1.659902,
darker,image04.jpg,8,0.151453,0.092003,0.001719,0.019195,68.305000,39.032000,7.241704,1.646175,
darker,image04.jpg,9,0.226860,0.092374,0.001718,0.021296,68.363000,39.065000,9.857478,2.455886,
darker,image04.jpg,10,0.226588,0.102778,0.001718,0.024314,68.372000,39.070000,8.704210,2.204635,
darker,image04.jpg,11,0.152179,0.091646,0.001718,0.018959,68.353000,39.059000,7.359820,1.660509,
darker,image04.jpg,12,0.151522,0.101215,0.001717,0.028147,68.389000,39.079000,5.073734,1.497031,
darker,image04.jpg,13,0.226877,0.097521,0.001717,0.021349,68.391000,39.081000,9.835992,2.326443,
darker,image04.jpg,14,0.226467,0.101892,0.001717,0.024238,68.385000,39.077000,8.725371,2.222618,
darker,image04.jpg,15,0.152590,0.090930,0.001720,0.018923,68.297000,39.027000,7.391852,1.678104,
darker,image04.jpg,16,0.151481,0.097160,0.001721,0.028862,68.246000,38.998000,4.953111,1.559088,
darker,image04.jpg,17,0.226850,0.097160,0.001720,0.021323,68.266000,39.009000,9.844638,2.334809,
darker,image04.jpg,18,0.226376,0.104342,0.001721,0.025933,68.259000,39.005000,8.186013,2.169558,
darker,image04.jpg,19,0.152469,0.091204,0.001716,0.018960,68.432000,39.104000,7.374202,1.671736,
darker,image05.jpg,0,0.299700,0.126940,0.003253,0.053379,71.321000,40.755000,5.292061,2.360958,
darker,image05.jpg,1,0.447067,0.117801,0.003256,0.040936,71.254000,40.716000,10.116469,3.795104,
darker,image05.jpg,2,0.445343,0.150183,0.003256,0.061502,71.251000,40.715000,6.877034,2.965336,
darker,image05.jpg,3,0.300754,0.110861,0.003259,0.036484,71.194000,40.683000,7.567471,2.712893,
darker,image05.jpg,4,0.298992,0.128174,0.003258,0.053934,71.196000,40.683000,5.227864,2.332704,
darker,image05.jpg,5,0.447078,0.112563,0.003255,0.040799,71.264000,40.722000,10.148409,3.971802,
darker,image05.jpg,6,0.445076,0.120356,0.003252,0.037416,71.333000,40.762000,10.944133,3.697996,
darker,image05.jpg,7,0.300885,0.110238,0.003255,0.036506,71.263000,40.722000,7.567340,2.729413,
darker,image05.jpg,8,0.299374,0.124137,0.003259,0.049634,71.194000,40.683000,5.659993,2.411642,
darker,image05.jpg,9,0.447127,0.119492,0.003259,0.040804,71.180000,40.674000,10.147448,3.741899,
darker,image05.jpg,10,0.445783,0.146566,0.003257,0.060608,71.222000,40.698000,6.980083,3.041517,
darker,image05.jpg,11,0.300725,0.109909,0.003252,0.036453,71.330000,40.760000,7.573983,2.736127,
darker,image05.jpg,12,0.298986,0.127977,0.003263,0.053468,71.105000,40.631000,5.270240,2.336248,
darker,image05.jpg,13,0.447192,0.118138,0.003256,0.040646,71.240000,40.709000,10.186142,3.785336,
darker,image05.jpg,14,0.445695,0.124272,0.003254,0.037586,71.303000,40.744000,10.913198,3.586447,
darker,image05.jpg,15,0.300844,0.110637,0.003257,0.036691,71.221000,40.698000,7.530890,2.719199,
darker,image05.jpg,16,0.299316,0.124593,0.003258,0.049316,71.214000,40.694000,5.693232,2.402350,
darker,image05.jpg,17,0.447082,0.113373,0.003262,0.040843,71.109000,40.634000,10.136765,3.943461,
darker,image05.jpg,18,0.445866,0.146912,0.003260,0.063332,71.157000,40.661000,6.695489,3.034919,
darker,image05.jpg,19,0.300825,0.110635,0.003258,0.036638,71.209000,40.691000,7.540230,2.719076,
darker,image06.jpg,0,0.589187,0.181064,0.006170,0.109186,74.358000,42.490000,5.107554,3.254026,
darker,image06.jpg,1,0.588823,0.160320,0.006127,0.080044,74.868000,42.782000,6.833192,3.672798,
darker,image06.jpg,2,0.590410,0.193508,0.006142,0.073700,74.693000,42.682000,7.394730,3.051088,
darker,image06.jpg,3,0.589087,0.147486,0.006151,0.072028,74.585000,42.620000,7.535105,3.994189,
darker,image06.jpg,4,0.588871,0.185015,0.006121,0.108352,74.951000,42.829000,5.144191,3.182828,
darker,image06.jpg,5,0.883901,0.160577,0.006144,0.079797,74.670000,42.669000,10.284975,5.504531,
darker,image06.jpg,6,0.878568,0.181574,0.006127,0.094809,74.873000,42.784000,8.704209,4.838622,
darker,image06.jpg,7,0.593532,0.147667,0.006154,0.071711,74.547000,42.598000,7.622578,4.019395,
darker,image06.jpg,8,0.588314,0.185028,0.006133,0.108210,74.800000,42.743000,5.145168,3.179594,
darker,image06.jpg,9,0.883850,0.156351,0.006140,0.081644,74.716000,42.695000,10.068464,5.652986,
darker,image06.jpg,10,0.881237,0.144101,0.006147,0.072640,74.632000,42.647000,11.185056,6.115412,
darker,image06.jpg,11,0.593426,0.147811,0.006142,0.071807,74.685000,42.677000,7.613003,4.014762,
darker,image06.jpg,12,0.588817,0.181595,0.006127,0.104552,74.878000,42.788000,5.320043,3.242474,
darker,image06.jpg,13,0.883954,0.155652,0.006136,0.080463,74.761000,42.720000,10.207439,5.679040,
darker,image06.jpg,14,0.879852,0.174042,0.006117,0.092978,74.997000,42.855000,8.878874,5.055400,
darker,image06.jpg,15,0.593630,0.148375,0.006146,0.072436,74.644000,42.654000,7.554275,4.000876,
darker,image06.jpg,16,0.588791,0.180991,0.006125,0.104098,74.897000,42.798000,5.341816,3.253151,
darker,image06.jpg,17,0.883966,0.157647,0.006137,0.082013,74.753000,42.716000,10.027975,5.607249,
darker,image06.jpg,18,0.880354,0.174658,0.006113,0.093448,75.051000,42.886000,8.842358,5.040445,
darker,image06.jpg,19,0.593378,0.146853,0.006151,0.071857,74.582000,42.618000,7.606630,4.040626,
darker,image07.jpg,0,-1.000000,-1.000000,-1.000000,-1.000000,-1.000000,-1.000000,-1.000000,4.040626,
darker,image07.jpg,1,-1.000000,-1.000000,-1.000000,-1.000000,-1.000000,-1.000000,-1.000000,4.040626,
darker,image07.jpg,2,-1.000000,-1.000000,-1.000000,-1.000000,-1.000000,-1.000000,-1.000000,4.040626,
darker,image07.jpg,3,-1.000000,-1.000000,-1.000000,-1.000000,-1.000000,-1.000000,-1.000000,4.040626,
darker,image07.jpg,4,-1.000000,-1.000000,-1.000000,-1.000000,-1.000000,-1.000000,-1.000000,4.040626,
darker,image07.jpg,5,-1.000000,-1.000000,-1.000000,-1.000000,-1.000000,-1.000000,-1.000000,4.040626,
darker,image07.jpg,6,-1.000000,-1.000000,-1.000000,-1.000000,-1.000000,-1.000000,-1.000000,4.040626,
darker,image07.jpg,7,-1.000000,-1.000000,-1.000000,-1.000000,-1.000000,-1.000000,-1.000000,4.040626,
darker,image07.jpg,8,-1.000000,-1.000000,-1.000000,-1.000000,-1.000000,-1.000000,-1.000000,4.040626,
darker,image07.jpg,9,-1.000000,-1.000000,-1.000000,-1.000000,-1.000000,-1.000000,-1.000000,4.040626,
darker,image07.jpg,10,-1.000000,-1.000000,-1.000000,-1.000000,-1.000000,-1.000000,-1.000000,4.040626,
darker,image07.jpg,11,-1.000000,-1.000000,-1.000000,-1.000000,-1.000000,-1.000000,-1.000000,4.040626,
darker,image07.jpg,12,-1.000000,-1.000000,-1.000000,-1.000000,-1.000000,-1.000000,-1.000000,4.040626,
darker,image07.jpg,13,-1.000000,-1.000000,-1.000000,-1.000000,-1.000000,-1.000000,-1.000000,4.040626,
darker,image07.jpg,14,-1.000000,-1.000000,-1.000000,-1.000000,-1.000000,-1.000000,-1.000000,4.040626,
darker,image07.jpg,15,-1.000000,-1.000000,-1.000000,-1.000000,-1.000000,-1.000000,-1.000000,4.040626,
darker,image07.jpg,16,-1.000000,-1.000000,-1.000000,-1.000000,-1.000000,-1.000000,-1.000000,4.040626,
darker,image07.jpg,17,-1.000000,-1.000000,-1.000000,-1.000000,-1.000000,-1.000000,-1.000000,4.040626,
darker,image07.jpg,18,-1.000000,-1.000000,-1.000000,-1.000000,-1.000000,-1.000000,-1.000000,4.040626,
darker,image07.jpg,19,-1.000000,-1.000000,-1.000000,-1.000000,-1.000000,-1.000000,-1.000000,4.040626,
histogram,image00.png,0,0.002093,0.072868,0.000247,0.000855,6.367000,8.490000,1.899274,0.028723,
histogram,image00.png,1,0.003137,0.075253,0.000247,0.000729,6.365000,8.487000,3.214139,0.041686,
histogram,image00.png,2,0.003190,0.079564,0.000211,0.000692,7.438000,9.917000,3.532669,0.040094,
histogram,image00.png,3,0.002150,0.070999,0.000208,0.000632,7.566000,10.088000,2.559524,0.030282,
histogram,image00.png,4,0.002093,0.068935,0.000215,0.000862,7.309000,9.745000,1.943361,0.030362,
histogram,image00.png,5,0.003291,0.073349,0.000215,0.000732,7.311000,9.748000,3.475185,0.044868,
histogram,image00.png,6,0.003183,0.074296,0.000210,0.000692,7.497000,9.996000,3.528825,0.042842,
histogram,image00.png,7,0.002144,0.071304,0.000238,0.000641,6.607000,8.810000,2.439135,0.030068,
histogram,image00.png,8,0.002092,0.073886,0.000214,0.000855,7.333000,9.778000,1.956969,0.028314,
histogram,image00.png,9,0.003217,0.072961,0.000206,0.000782,7.632000,10.176000,3.256073,0.044092,
histogram,image00.png,10,0.003238,0.075122,0.000210,0.000687,7.504000,10.005000,3.609810,0.043103,
histogram,image00.png,11,0.002135,0.068858,0.000208,0.000633,7.580000,10.106000,2.538644,0.031006,
histogram,image00.png,12,0.002088,0.069153,0.000216,0.000850,7.298000,9.730000,1.958724,0.030194,
histogram,image00.png,13,0.003296,0.072563,0.000222,0.000734,7.082000,9.442000,3.447699,0.045423,
histogram,image00.png,14,0.003135,0.074708,0.000211,0.000693,7.471000,9.961000,3.467920,0.041963,
histogram,image00.png,15,0.002091,0.069029,0.000241,0.000630,6.535000,8.713000,2.400689,0.030292,
histogram,image00.png,16,0.002185,0.068898,0.000213,0.000842,7.378000,9.838000,2.071090,0.031714,
histogram,image00.png,17,0.003237,0.073552,0.000211,0.000741,7.471000,9.961000,3.400210,0.044010,
histogram,image00.png,18,0.003232,0.078105,0.000218,0.000748,7.212000,9.615000,3.345756,0.041380,
histogram,image00.png,19,0.002125,0.068670,0.000208,0.000633,7.578000,10.104000,2.526754,0.030945,
histogram,image01.jpg,0,0.021413,0.084653,0.009608,0.005796,1.637000,2.183000,1.390093,0.252950,
histogram,image01.jpg,1,0.031907,0.085535,0.009603,0.004730,1.638000,2.184000,2.226122,0.373029,
histogram,image01.jpg,2,0.031848,0.089696,0.009552,0.005047,1.647000,2.196000,2.181519,0.355066,
histogram,image01.jpg,3,0.021622,0.082889,0.009588,0.003947,1.640000,2.187000,1.597488,0.260855,
histogram,image01.jpg,4,0.021418,0.085681,0.009600,0.005810,1.638000,2.184000,1.389877,0.249974,
histogram,image01.jpg,5,0.031969,0.088017,0.009584,0.004720,1.641000,2.188000,2.234969,0.363214,
histogram,image01.jpg,6,0.031735,0.091497,0.009610,0.005041,1.637000,2.182000,2.166064,0.346842,
histogram,image01.jpg,7,0.021660,0.083975,0.009636,0.003970,1.632000,2.176000,1.591945,0.257934,
histogram,image01.jpg,8,0.021474,0.084280,0.009583,0.005786,1.641000,2.188000,1.397228,0.254794,
histogram,image01.jpg,9,0.031790,0.087017,0.009610,0.004763,1.637000,2.182000,2.211786,0.365331,
histogram,image01.jpg,10,0.031727,0.088973,0.009599,0.005069,1.639000,2.185000,2.163008,0.356591,
histogram,image01.jpg,11,0.021645,0.082787,0.009610,0.003979,1.637000,2.182000,1.592832,0.261454,
histogram,image01.jpg,12,0.021565,0.085513,0.009587,0.005799,1.641000,2.187000,1.401599,0.252184,
histogram,image01.jpg,13,0.032037,0.088589,0.009580,0.004786,1.642000,2.189000,2.230057,0.361636,
histogram,image01.jpg,14,0.032118,0.092035,0.009629,0.005040,1.633000,2.178000,2.189515,0.348976,
histogram,image01.jpg,15,0.021871,0.083964,0.009584,0.003965,1.641000,2.188000,1.614215,0.260481,
histogram,image01.jpg,16,0.021436,0.085683,0.009632,0.005787,1.633000,2.177000,1.390233,0.250178,
histogram,image01.jpg,17,0.031922,0.088856,0.009589,0.004726,1.640000,2.187000,2.229969,0.359255,
histogram,image01.jpg,18,0.031440,0.091108,0.009617,0.005027,1.635000,2.181000,2.146954,0.345085,
histogram,image01.jpg,19,0.021582,0.083088,0.009566,0.003944,1.644000,2.192000,1.597483,0.259749,
histogram,image02.jpg,0,0.029334,0.086233,0.014147,0.007032,1.563000,2.085000,1.385051,0.340171,
histogram,image02.jpg,1,0.043870,0.093937,0.014155,0.005591,1.563000,2.083000,2.221716,0.467015,
histogram,image02.jpg,2,0.043503,0.085101,0.014120,0.004924,1.566000,2.089000,2.284342,0.511193,
histogram,image02.jpg,3,0.029515,0.089431,0.014133,0.004849,1.565000,2.087000,1.554894,0.330031,
histogram,image02.jpg,4,0.029303,0.092065,0.014123,0.005797,1.566000,2.088000,1.471034,0.318286,
histogram,image02.jpg,5,0.043670,0.093511,0.014115,0.005572,1.567000,2.089000,2.218215,0.467004,
histogram,image02.jpg,6,0.043569,0.096161,0.014115,0.005563,1.567000,2.089000,2.214097,0.453084,
histogram,image02.jpg,7,0.029732,0.089020,0.014144,0.004861,1.564000,2.085000,1.564430,0.333992,
histogram,image02.jpg,8,0.029312,0.091780,0.014133,0.007040,1.565000,2.087000,1.384405,0.319372,
histogram,image02.jpg,9,0.043813,0.093776,0.014124,0.005563,1.566000,2.088000,2.225479,0.467209,
histogram,image02.jpg,10,0.028915,0.098299,0.014118,0.006597,1.567000,2.089000,1.395848,0.294154,
histogram,image02.jpg,11,0.029476,0.089509,0.014104,0.004831,1.568000,2.091000,1.556694,0.329308,
histogram,image02.jpg,12,0.029289,0.091636,0.014125,0.007119,1.566000,2.088000,1.378695,0.319623,
histogram,image02.jpg,13,0.043625,0.092708,0.014111,0.005599,1.567000,2.090000,2.213343,0.470563,
histogram,image02.jpg,14,0.043509,0.095396,0.014119,0.005557,1.567000,2.089000,2.211273,0.456088,
histogram,image02.jpg,15,0.029423,0.089924,0.014138,0.004848,1.565000,2.086000,1.549721,0.327199,
histogram,image02.jpg,16,0.028982,0.092438,0.014152,0.007157,1.563000,2.084000,1.360083,0.313529,
histogram,image02.jpg,17,0.043943,0.088543,0.014114,0.005583,1.567000,2.089000,2.230949,0.496290,
histogram,image02.jpg,18,0.043546,0.088509,0.014114,0.005162,1.567000,2.090000,2.259079,0.491995,
histogram,image02.jpg,19,0.029905,0.089592,0.014116,0.004860,1.567000,2.089000,1.575938,0.333791,
histogram,image03.jpg,0,0.201107,0.142762,0.032083,0.041306,4.720000,6.294000,2.740288,1.408687,
histogram,image03.jpg,1,0.300645,0.137549,0.032014,0.031777,4.731000,6.307000,4.712969,2.185730,
histogram,image03.jpg,2,0.298774,0.145718,0.032019,0.036362,4.730000,6.306000,4.369255,2.050358,
histogram,image03.jpg,3,0.202675,0.131602,0.032034,0.028313,4.728000,6.303000,3.358493,1.540060,
histogram,image03.jpg,4,0.201042,0.144831,0.032089,0.041392,4.720000,6.293000,2.735973,1.388114,
histogram,image03.jpg,5,0.300787,0.138947,0.032028,0.031610,4.728000,6.305000,4.726531,2.164761,
histogram,image03.jpg,6,0.298971,0.153850,0.032008,0.037080,4.731000,6.308000,4.327394,1.943263,
histogram,image03.jpg,7,0.201967,0.131918,0.032006,0.028241,4.732000,6.309000,3.352316,1.531004,
histogram,image03.jpg,8,0.201629,0.140061,0.032074,0.041886,4.722000,6.296000,2.726190,1.439580,
histogram,image03.jpg,9,0.300795,0.138126,0.032017,0.031832,4.730000,6.307000,4.711037,2.177686,
histogram,image03.jpg,10,0.298831,0.145409,0.032032,0.036209,4.728000,6.304000,4.379054,2.055107,
histogram,image03.jpg,11,0.201930,0.131929,0.032015,0.028346,4.730000,6.307000,3.345372,1.530596,
histogram,image03.jpg,12,0.201019,0.144571,0.032073,0.041326,4.722000,6.296000,2.738716,1.390452,
histogram,image03.jpg,13,0.300910,0.138532,0.032027,0.031651,4.729000,6.305000,4.725494,2.172134,
histogram,image03.jpg,14,0.298374,0.149083,0.032016,0.036301,4.730000,6.307000,4.367493,2.001395,
histogram,image03.jpg,15,0.202460,0.132590,0.032025,0.028272,4.729000,6.305000,3.357713,1.526963,
histogram,image03.jpg,16,0.201599,0.146268,0.032136,0.042927,4.713000,6.283000,2.685731,1.378285,
histogram,image03.jpg,17,0.300454,0.138770,0.032043,0.031649,4.726000,6.302000,4.717296,2.165122,
histogram,image03.jpg,18,0.299002,0.153625,0.032032,0.036258,4.728000,6.304000,4.378416,1.946311,
histogram,image03.jpg,19,0.202766,0.131336,0.032004,0.028324,4.732000,6.309000,3.361060,1.543872,
histogram,image04.jpg,0,0.132472,0.184491,0.090142,0.027928,1.117000,1.489000,1.121978,0.718040,
histogram,image04.jpg,1,0.198118,0.185804,0.090125,0.021548,1.117000,1.489000,1.774090,1.066274,
histogram,image04.jpg,2,0.197025,0.192923,0.090154,0.024841,1.117000,1.489000,1.713335,1.021262,
histogram,image04.jpg,3,0.133993,0.179903,0.090093,0.019138,1.117000,1.490000,1.226694,0.744807,
histogram,image04.jpg,4,0.133020,0.188530,0.090135,0.027967,1.117000,1.489000,1.126315,0.705564,
histogram,image04.jpg,5,0.198161,0.186161,0.090107,0.021585,1.117000,1.490000,1.774174,1.064460,
histogram,image04.jpg,6,0.197081,0.193470,0.090135,0.026290,1.117000,1.489000,1.692772,1.018664,
histogram,image04.jpg,7,0.133466,0.179298,0.090067,0.019196,1.118000,1.490000,1.221511,0.744381,
histogram,image04.jpg,8,0.196853,0.180074,0.090108,0.019129,1.117000,1.490000,1.802073,1.093178,
histogram,image04.jpg,9,0.198298,0.187877,0.090146,0.021510,1.117000,1.489000,1.775973,1.055467,
histogram,image04.jpg,10,0.197021,0.192464,0.090093,0.024908,1.117000,1.490000,1.713211,1.023677,
histogram,image04.jpg,11,0.133496,0.180723,0.090110,0.019281,1.117000,1.489000,1.220356,0.738677,
histogram,image04.jpg,12,0.132851,0.189338,0.090130,0.027978,1.117000,1.489000,1.124826,0.701661,
histogram,image04.jpg,13,0.198313,0.186134,0.090105,0.021640,1.117000,1.490000,1.774692,1.065431,
histogram,image04.jpg,14,0.197031,0.192395,0.090162,0.024497,1.116000,1.489000,1.718408,1.024096,
histogram,image04.jpg,15,0.133486,0.180620,0.090155,0.019134,1.117000,1.489000,1.221404,0.739043,
histogram,image04.jpg,16,0.133201,0.190209,0.090095,0.027902,1.117000,1.490000,1.128851,0.700288,
histogram,image04.jpg,17,0.198525,0.184454,0.090101,0.021537,1.117000,1.490000,1.778292,1.076285,
histogram,image04.jpg,18,0.197207,0.195470,0.090146,0.025021,1.117000,1.489000,1.712357,1.008886,
histogram,image04.jpg,19,0.133729,0.179689,0.090151,0.019182,1.117000,1.489000,1.223135,0.744225,
histogram,image05.jpg,0,0.268111,0.143298,0.029686,0.043591,6.698000,8.931000,3.658870,1.871003,
histogram,image05.jpg,1,0.400146,0.144831,0.029728,0.041199,6.689000,8.919000,5.641660,2.762848,
histogram,image05.jpg,2,0.267331,0.147730,0.029734,0.037362,6.688000,8.917000,3.984306,1.809592,
histogram,image05.jpg,3,0.269774,0.137876,0.029767,0.037196,6.680000,8.907000,4.028702,1.956642,
histogram,image05.jpg,4,0.268176,0.154729,0.029706,0.054442,6.694000,8.925000,3.186956,1.733198,
histogram,image05.jpg,5,0.400233,0.144605,0.029734,0.040927,6.688000,8.917000,5.664129,2.767767,
histogram,image05.jpg,6,0.399007,0.173972,0.029730,0.060870,6.688000,8.918000,4.404051,2.293513,
histogram,image05.jpg,7,0.269633,0.136868,0.029745,0.036774,6.685000,8.913000,4.053473,1.970022,
histogram,image05.jpg,8,0.268152,0.155775,0.029705,0.054515,6.694000,8.926000,3.183947,1.721406,
histogram,image05.jpg,9,0.400266,0.140206,0.029741,0.041110,6.686000,8.915000,5.649405,2.854842,
histogram,image05.jpg,10,0.398942,0.149616,0.029721,0.037111,6.690000,8.921000,5.969326,2.666439,
histogram,image05.jpg,11,0.269688,0.137735,0.029785,0.036689,6.676000,8.901000,4.057045,1.958021,
histogram,image05.jpg,12,0.268253,0.154323,0.029692,0.053746,6.697000,8.929000,3.214998,1.738257,
histogram,image05.jpg,13,0.400173,0.145305,0.029764,0.040943,6.681000,8.908000,5.659595,2.754021,
histogram,image05.jpg,14,0.399076,0.149211,0.029734,0.037015,6.687000,8.917000,5.978756,2.674575,
histogram,image05.jpg,15,0.269875,0.137080,0.029735,0.036735,6.687000,8.916000,4.060102,1.968741,
histogram,image05.jpg,16,0.268145,0.153640,0.029685,0.053149,6.699000,8.932000,3.237137,1.745281,
histogram,image05.jpg,17,0.400165,0.144534,0.029747,0.041069,6.685000,8.913000,5.650771,2.768657,
histogram,image05.jpg,18,0.398994,0.149558,0.029728,0.037400,6.689000,8.918000,5.943779,2.667821,
histogram,image05.jpg,19,0.269623,0.136947,0.029721,0.036951,6.690000,8.921000,4.044021,1.968813,
histogram,image06.jpg,0,0.520080,0.257530,0.077745,0.108841,5.058000,6.744000,2.787347,2.019493,
histogram,image06.jpg,1,0.776049,0.236055,0.077716,0.082166,5.060000,6.746000,4.853886,3.287577,
histogram,image06.jpg,2,0.773739,0.221977,0.077685,0.072956,5.062000,6.749000,5.136311,3.485672,
histogram,image06.jpg,3,0.521387,0.248652,0.078144,0.104690,5.032000,6.709000,2.851696,2.096854,
histogram,image06.jpg,4,0.518174,0.232675,0.077787,0.072052,5.055000,6.740000,3.458205,2.227029,
histogram,image06.jpg,5,0.521194,0.256946,0.077848,0.095725,5.051000,6.735000,3.002737,2.028418,
histogram,image06.jpg,6,0.774005,0.223734,0.077738,0.072486,5.058000,6.744000,5.152339,3.459488,
histogram,image06.jpg,7,0.521741,0.252855,0.077955,0.102857,5.044000,6.726000,2.885544,2.063400,
histogram,image06.jpg,8,0.518156,0.282166,0.077753,0.120433,5.057000,6.743000,2.614493,1.836352,
histogram,image06.jpg,9,0.520721,0.250770,0.077795,0.096958,5.054000,6.739000,2.979754,2.076488,
histogram,image06.jpg,10,0.516434,0.220102,0.077735,0.072001,5.058000,6.745000,3.448964,2.346339,
histogram,image06.jpg,11,0.521332,0.252680,0.077959,0.103328,5.044000,6.725000,2.875727,2.063210,
histogram,image06.jpg,12,0.518326,0.286390,0.077779,0.120091,5.056000,6.741000,2.619528,1.809861,
histogram,image06.jpg,13,0.520661,0.247355,0.077734,0.094051,5.058000,6.745000,3.030887,2.104914,
histogram,image06.jpg,14,0.773659,0.215852,0.077663,0.072402,5.063000,6.751000,5.155493,3.584210,
histogram,image06.jpg,15,0.521445,0.250567,0.077960,0.101589,5.044000,6.725000,2.904193,2.081060,
histogram,image06.jpg,16,0.771120,0.232986,0.077750,0.072062,5.057000,6.743000,5.147251,3.309727,
histogram,image06.jpg,17,0.521323,0.246577,0.077718,0.093080,5.060000,6.746000,3.052278,2.114240,
histogram,image06.jpg,18,0.778786,0.214994,0.077749,0.072430,5.057000,6.743000,5.185718,3.622362,
histogram,image06.jpg,19,0.521504,0.250163,0.078026,0.101893,5.040000,6.719000,2.898549,2.084657,
histogram,image07.jpg,0,-1.000000,-1.000000,-1.000000,-1.000000,-1.000000,-1.000000,-1.000000,2.084657,
histogram,image07.jpg,1,-1.000000,-1.000000,-1.000000,-1.000000,-1.000000,-1.000000,-1.000000,2.084657,
histogram,image07.jpg,2,-1.000000,-1.000000,-1.000000,-1.000000,-1.000000,-1.000000,-1.000000,2.084657,
histogram,image07.jpg,3,-1.000000,-1.000000,-1.000000,-1.000000,-1.000000,-1.000000,-1.000000,2.084657,
histogram,image07.jpg,4,-1.000000,-1.000000,-1.000000,-1.000000,-1.000000,-1.000000,-1.000000,2.084657,
histogram,image07.jpg,5,-1.000000,-1.000000,-1.000000,-1.000000,-1.000000,-1.000000,-1.000000,2.084657,
histogram,image07.jpg,6,-1.000000,-1.000000,-1.000000,-1.000000,-1.000000,-1.000000,-1.000000,2.084657,
histogram,image07.jpg,7,-1.000000,-1.000000,-1.000000,-1.000000,-1.000000,-1.000000,-1.000000,2.084657,
histogram,image07.jpg,8,-1.000000,-1.000000,-1.000000,-1.000000,-1.000000,-1.000000,-1.000000,2.084657,
histogram,image07.jpg,9,-1.000000,-1.000000,-1.000000,-1.000000,-1.000000,-1.000000,-1.000000,2.084657,
histogram,image07.jpg,10,-1.000000,-1.000000,-1.000000,-1.000000,-1.000000,-1.000000,-1.000000,2.084657,
histogram,image07.jpg,11,-1.000000,-1.000000,-1.000000,-1.000000,-1.000000,-1.000000,-1.000000,2.084657,
histogram,image07.jpg,12,-1.000000,-1.000000,-1.000000,-1.000000,-1.000000,-1.000000,-1.000000,2.084657,
histogram,image07.jpg,13,-1.000000,-1.000000,-1.000000,-1.000000,-1.000000,-1.000000,-1.000000,2.084657,
histogram,image07.jpg,14,-1.000000,-1.000000,-1.000000,-1.000000,-1.000000,-1.000000,-1.000000,2.084657,
histogram,image07.jpg,15,-1.000000,-1.000000,-1.000000,-1.000000,-1.000000,-1.000000,-1.000000,2.084657,
histogram,image07.jpg,16,-1.000000,-1.000000,-1.000000,-1.000000,-1.000000,-1.000000,-1.000000,2.084657,
histogram,image07.jpg,17,-1.000000,-1.000000,-1.000000,-1.000000,-1.000000,-1.000000,-1.000000,2.084657,
histogram,image07.jpg,18,-1.000000,-1.000000,-1.000000,-1.000000,-1.000000,-1.000000,-1.000000,2.084657,
histogram,image07.jpg,19,-1.000000,-1.000000,-1.000000,-1.000000,-1.000000,-1.000000,-1.000000,2.084657,
smooth,image00.png,0,0.066965,0.088000,0.001879,0.001272,10.464000,2.466000,21.251983,0.760966,
smooth,image00.png,1,0.067019,0.079876,0.001882,0.001030,10.448000,2.462000,23.014766,0.839038,
smooth,image00.png,2,0.101019,0.073652,0.001881,0.000896,10.455000,2.463000,36.377026,1.371572,
smooth,image00.png,3,0.066978,0.073155,0.001881,0.001245,10.450000,2.462000,21.426104,0.915563,
smooth,image00.png,4,0.066978,0.085124,0.001882,0.001269,10.446000,2.461000,21.256109,0.786829,
smooth,image00.png,5,0.066973,0.078162,0.001882,0.001018,10.447000,2.462000,23.094138,0.856849,
smooth,image00.png,6,0.101134,0.071394,0.001888,0.000892,10.413000,2.453000,36.379137,1.416562,
smooth,image00.png,7,0.066997,0.070438,0.001880,0.001253,10.456000,2.464000,21.384296,0.951149,
smooth,image00.png,8,0.067544,0.085776,0.001875,0.001274,10.484000,2.470000,21.449349,0.787446,
smooth,image00.png,9,0.067577,0.077792,0.001887,0.001019,10.419000,2.455000,23.254301,0.868688,
smooth,image00.png,10,0.101091,0.072794,0.001882,0.000901,10.449000,2.462000,36.324470,1.388727,
smooth,image00.png,11,0.067794,0.072368,0.001886,0.001248,10.426000,2.457000,21.631780,0.936795,
smooth,image00.png,12,0.067522,0.085656,0.001886,0.001279,10.424000,2.456000,21.333965,0.788293,
smooth,image00.png,13,0.066972,0.077075,0.001882,0.001017,10.444000,2.461000,23.101759,0.868920,
smooth,image00.png,14,0.101009,0.071635,0.001882,0.000893,10.445000,2.461000,36.399640,1.410051,
smooth,image00.png,15,0.066988,0.069672,0.001884,0.000815,10.438000,2.459000,24.819563,0.961477,
smooth,image00.png,16,0.067475,0.085421,0.001890,0.001284,10.401000,2.451000,21.258664,0.789911,
smooth,image00.png,17,0.066962,0.077848,0.001884,0.001012,10.437000,2.459000,23.122238,0.860163,
smooth,image00.png,18,0.101224,0.071532,0.001890,0.000897,10.401000,2.451000,36.320057,1.415087,
smooth,image00.png,19,0.067394,0.072063,0.001885,0.001234,10.432000,2.458000,21.607567,0.935209,
smooth,image01.jpg,0,0.669688,0.108419,0.016703,0.009627,11.771000,2.730000,25.434409,6.176851,
smooth,image01.jpg,1,0.669728,0.098453,0.016762,0.006662,11.730000,2.720000,28.591530,6.802515,
smooth,image01.jpg,2,1.004505,0.091885,0.016760,0.005534,11.731000,2.720000,45.057190,10.932198,
smooth,image01.jpg,3,0.669594,0.094744,0.016794,0.007647,11.707000,2.715000,27.396342,7.067403,
smooth,image01.jpg,4,0.669875,0.109937,0.016756,0.009302,11.733000,2.721000,25.707077,6.093263,
smooth,image01.jpg,5,0.669763,0.100170,0.016741,0.006650,11.744000,2.723000,28.633363,6.686263,
smooth,image01.jpg,6,1.004110,0.093755,0.016924,0.005526,11.617000,2.694000,44.726503,10.709935,
smooth,image01.jpg,7,0.670046,0.094155,0.016805,0.007555,11.699000,2.713000,27.505993,7.116414,
smooth,image01.jpg,8,0.669271,0.109956,0.016696,0.009303,11.775000,2.731000,25.742182,6.086717,
smooth,image01.jpg,9,0.670727,0.100165,0.016783,0.006662,11.715000,2.717000,28.608531,6.696221,
smooth,image01.jpg,10,1.004268,0.094207,0.016837,0.005548,11.677000,2.708000,44.863435,10.660227,
smooth,image01.jpg,11,0.670158,0.094627,0.016795,0.007579,11.706000,2.715000,27.494790,7.082101,
smooth,image01.jpg,12,0.669683,0.110010,0.016721,0.009290,11.758000,2.727000,25.746146,6.087474,
smooth,image01.jpg,13,0.670314,0.100880,0.016806,0.006748,11.699000,2.713000,28.458606,6.644667,
smooth,image01.jpg,14,1.004187,0.092965,0.016765,0.005499,11.727000,2.719000,45.103620,10.801775,
smooth,image01.jpg,15,0.669968,0.095095,0.016759,0.007659,11.732000,2.720000,27.437464,7.045249,
smooth,image01.jpg,16,0.669371,0.110249,0.016804,0.009322,11.700000,2.713000,25.620876,6.071447,
smooth,image01.jpg,17,0.669960,0.099276,0.016775,0.006755,11.720000,2.718000,28.472588,6.748459,
smooth,image01.jpg,18,1.004806,0.093900,0.016891,0.005572,11.640000,2.699000,44.731603,10.700809,
smooth,image01.jpg,19,0.669644,0.094803,0.016783,0.007618,11.715000,2.717000,27.443302,7.063532,
smooth,image02.jpg,0,0.943357,0.120093,0.023452,0.013126,11.789000,2.741000,25.790284,7.855221,
smooth,image02.jpg,1,0.943444,0.109322,0.023568,0.009016,11.731000,2.728000,28.954211,8.629956,
smooth,image02.jpg,2,1.415035,0.103126,0.023459,0.007744,11.786000,2.740000,45.349325,13.721418,
smooth,image02.jpg,3,0.943864,0.100567,0.023498,0.007765,11.766000,2.736000,30.191089,9.385425,
smooth,image02.jpg,4,0.942983,0.120982,0.023487,0.013555,11.772000,2.737000,25.457130,7.794407,
smooth,image02.jpg,5,0.943330,0.109170,0.023396,0.009326,11.817000,2.748000,28.828617,8.640927,
smooth,image02.jpg,6,1.415686,0.102326,0.023413,0.007735,11.809000,2.746000,45.450302,13.835057,
smooth,image02.jpg,7,0.943109,0.104544,0.023522,0.010670,11.754000,2.733000,27.582739,9.021168,
smooth,image02.jpg,8,0.943392,0.120336,0.023437,0.013105,11.797000,2.743000,25.816649,7.839649,
smooth,image02.jpg,9,0.944017,0.107933,0.023429,0.009334,11.801000,2.744000,28.813509,8.746324,
smooth,image02.jpg,10,1.414411,0.102355,0.023600,0.007733,11.715000,2.724000,45.141257,13.818680,
smooth,image02.jpg,11,0.943517,0.104941,0.023534,0.010636,11.748000,2.732000,27.612438,8.990928,
smooth,image02.jpg,12,0.960491,0.113697,0.023625,0.007870,11.703000,2.721000,30.496619,8.447813,
smooth,image02.jpg,13,0.942902,0.108775,0.023532,0.009336,11.749000,2.732000,28.687538,8.668370,
smooth,image02.jpg,14,1.414146,0.103091,0.023554,0.007754,11.738000,2.729000,45.168839,13.717454,
smooth,image02.jpg,15,0.943285,0.099620,0.023548,0.010740,11.741000,2.730000,27.510645,9.468832,
smooth,image02.jpg,16,0.943214,0.121719,0.023664,0.013269,11.683000,2.717000,25.538516,7.749111,
smooth,image02.jpg,17,0.943812,0.109849,0.023465,0.009457,11.783000,2.740000,28.668125,8.591903,
smooth,image02.jpg,18,1.414195,0.101923,0.023599,0.007738,11.716000,2.724000,45.128602,13.875131,
smooth,image02.jpg,19,0.943674,0.104616,0.023500,0.010669,11.765000,2.736000,27.617841,9.020360,
smooth,image03.jpg,0,6.463565,0.322752,0.159110,0.081379,11.898000,2.755000,26.876759,20.026413,
smooth,image03.jpg,1,6.467505,0.294295,0.159414,0.057667,11.875000,2.750000,29.793050,21.976265,
smooth,image03.jpg,2,9.698126,0.279393,0.159548,0.047107,11.865000,2.748000,46.929065,34.711414,
smooth,image03.jpg,3,6.463709,0.289180,0.159287,0.063758,11.884000,2.752000,28.979394,22.351854,
smooth,image03.jpg,4,6.481663,0.323706,0.159186,0.081414,11.892000,2.754000,26.939580,20.023302,
smooth,image03.jpg,5,6.467801,0.322058,0.159432,0.080967,11.874000,2.750000,26.904442,20.082721,
smooth,image03.jpg,6,6.465658,0.306212,0.159671,0.075608,11.856000,2.745000,27.480812,21.114973,
smooth,image03.jpg,7,6.468779,0.293559,0.158891,0.064142,11.914000,2.759000,29.003686,22.035703,
smooth,image03.jpg,8,9.712464,0.286967,0.159065,0.053108,11.901000,2.756000,45.776154,33.845230,
smooth,image03.jpg,9,9.701385,0.295168,0.159091,0.059217,11.899000,2.755000,44.438981,32.867333,
smooth,image03.jpg,10,6.467755,0.278124,0.159216,0.046974,11.890000,2.753000,31.367937,23.254933,
smooth,image03.jpg,11,6.468754,0.293432,0.158664,0.063597,11.931000,2.763000,29.104314,22.045155,
smooth,image03.jpg,12,9.700950,0.287178,0.158792,0.053179,11.922000,2.761000,45.765458,33.780269,
smooth,image03.jpg,13,9.697675,0.294449,0.159441,0.057659,11.873000,2.749000,44.669162,32.934990,
smooth,image03.jpg,14,6.467790,0.277168,0.158947,0.046908,11.910000,2.758000,31.419154,23.335270,
smooth,image03.jpg,15,6.465418,0.293952,0.158774,0.063666,11.923000,2.761000,29.065896,21.994809,
smooth,image03.jpg,16,9.702359,0.287421,0.159246,0.053272,11.888000,2.753000,45.654293,33.756611,
smooth,image03.jpg,17,9.701399,0.294475,0.159062,0.057711,11.901000,2.756000,44.753724,32.944729,
smooth,image03.jpg,18,6.468340,0.277011,0.159124,0.046807,11.897000,2.755000,31.410230,23.350481,
smooth,image03.jpg,19,6.465879,0.294512,0.158953,0.064180,11.909000,2.758000,28.977690,21.954552,
smooth,image04.jpg,0,7.052362,0.218345,0.107835,0.035947,11.669000,2.700000,49.048991,32.299169,
smooth,image04.jpg,1,7.052673,0.222292,0.107573,0.038537,11.697000,2.707000,48.269612,31.727066,
smooth,image04.jpg,2,4.700252,0.209873,0.107624,0.031644,11.692000,2.705000,33.749691,22.395696,
smooth,image04.jpg,3,4.702762,0.221210,0.107408,0.042844,11.715000,2.711000,31.299164,21.259265,
smooth,image04.jpg,4,7.052528,0.212456,0.107686,0.035610,11.685000,2.704000,49.216503,33.195240,
smooth,image04.jpg,5,7.050879,0.223107,0.107400,0.038618,11.716000,2.711000,48.287738,31.603128,
smooth,image04.jpg,6,4.700856,0.209910,0.107656,0.031452,11.688000,2.704000,33.792852,22.394626,
smooth,image04.jpg,7,4.702021,0.221098,0.107433,0.043083,11.712000,2.710000,31.239343,21.266683,
smooth,image04.jpg,8,7.051432,0.213242,0.107501,0.035803,11.705000,2.708000,49.206107,33.067745,
smooth,image04.jpg,9,7.053144,0.224695,0.107664,0.039405,11.687000,2.704000,47.958061,31.389857,
smooth,image04.jpg,10,4.700736,0.209262,0.107517,0.031476,11.703000,2.708000,33.819948,22.463400,
smooth,image04.jpg,11,4.701625,0.221334,0.107471,0.042587,11.708000,2.709000,31.332052,21.242218,
smooth,image04.jpg,12,7.061248,0.216964,0.107471,0.035711,11.708000,2.709000,49.316590,32.545713,
smooth,image04.jpg,13,7.050994,0.223376,0.107562,0.039809,11.698000,2.707000,47.845193,31.565584,
smooth,image04.jpg,14,4.700703,0.210050,0.107572,0.031396,11.697000,2.707000,33.825794,22.378972,
smooth,image04.jpg,15,4.701805,0.223196,0.107462,0.042898,11.709000,2.709000,31.270318,21.065812,
smooth,image04.jpg,16,7.051556,0.217137,0.107521,0.035650,11.703000,2.708000,49.252684,32.475147,
smooth,image04.jpg,17,7.050766,0.219509,0.107463,0.035602,11.709000,2.709000,49.283654,32.120624,
smooth,image04.jpg,18,4.701565,0.210052,0.107487,0.031513,11.706000,2.709000,33.824209,22.382862,
smooth,image04.jpg,19,4.701730,0.221091,0.107427,0.043103,11.713000,2.710000,31.234505,21.266040,
smooth,image05.jpg,0,12.972765,0.351772,0.209206,0.068832,2.750000,-1.000000,46.658245,36.878333,
smooth,image05.jpg,1,12.965432,0.361085,0.209089,0.075807,2.752000,-1.000000,45.509351,35.906870,
smooth,image05.jpg,2,8.647190,0.340681,0.209217,0.060854,2.750000,-1.000000,32.018210,25.382073,
smooth,image05.jpg,3,8.643768,0.357450,0.209152,0.075479,2.751000,-1.000000,30.368330,24.181754,
smooth,image05.jpg,4,12.968522,0.352164,0.209201,0.068501,2.750000,-1.000000,46.699419,36.825235,
smooth,image05.jpg,5,8.638510,0.361716,0.209077,0.077153,2.752000,-1.000000,30.180310,23.882023,
smooth,image05.jpg,6,8.650694,0.341191,0.209630,0.060949,2.745000,-1.000000,31.971047,25.354403,
smooth,image05.jpg,7,8.643601,0.359189,0.209382,0.075327,2.748000,-1.000000,30.359423,24.064214,
smooth,image05.jpg,8,12.973740,0.351784,0.209307,0.068705,2.749000,-1.000000,46.666115,36.879847,
smooth,image05.jpg,9,12.969040,0.355375,0.209174,0.070216,2.751000,-1.000000,46.419127,36.493957,
smooth,image05.jpg,10,8.650910,0.379274,0.209161,0.098619,2.751000,-1.000000,28.107447,22.809130,
smooth,image05.jpg,11,8.644770,0.357309,0.209440,0.075167,2.747000,-1.000000,30.374411,24.194101,
smooth,image05.jpg,12,12.967736,0.351993,0.209170,0.068694,2.751000,-1.000000,46.669363,36.840892,
smooth,image05.jpg,13,12.971320,0.362869,0.209006,0.077369,2.753000,-1.000000,45.294876,35.746564,
smooth,image05.jpg,14,8.652001,0.379898,0.209125,0.100208,2.751000,-1.000000,27.969861,22.774537,
smooth,image05.jpg,15,8.644931,0.357286,0.209162,0.074633,2.751000,-1.000000,30.461886,24.196109,
smooth,image05.jpg,16,12.973320,0.351677,0.209138,0.068485,2.751000,-1.000000,46.729990,36.889873,
smooth,image05.jpg,17,12.968756,0.361959,0.209185,0.077479,2.750000,-1.000000,45.240267,35.829351,
smooth,image05.jpg,18,8.647599,0.341648,0.209368,0.061125,2.748000,-1.000000,31.969770,25.311429,
smooth,image05.jpg,19,8.643493,0.351527,0.209454,0.075281,2.747000,-1.000000,30.356272,24.588419,
smooth,image06.jpg,0,27.890188,0.621653,0.411314,0.136272,1.508000,2.764000,50.932982,44.864559,
smooth,image06.jpg,1,18.586563,0.622614,0.411138,0.136425,1.509000,2.765000,33.944154,29.852466,
smooth,image06.jpg,2,18.590142,0.602793,0.411894,0.120787,1.506000,2.760000,34.899202,30.840010,
smooth,image06.jpg,3,18.591696,0.623543,0.411031,0.142100,1.509000,2.765000,33.611741,29.816221,
smooth,image06.jpg,4,27.891585,0.622020,0.411837,0.136038,1.506000,2.760000,50.908665,44.840335,
smooth,image06.jpg,5,27.894288,0.650422,0.411507,0.164023,1.507000,2.762000,48.467131,42.886446,
smooth,image06.jpg,6,18.585283,0.603873,0.411909,0.121068,1.506000,2.760000,34.870704,30.776807,
smooth,image06.jpg,7,18.600751,0.668405,0.411570,0.191260,1.507000,2.762000,30.855716,27.828564,
smooth,image06.jpg,8,27.886144,0.617220,0.410753,0.136734,1.510000,2.767000,50.934806,45.180234,
smooth,image06.jpg,9,27.901864,0.610239,0.411675,0.131312,1.507000,2.761000,51.385878,45.722846,
smooth,image06.jpg,10,18.589834,0.600767,0.410459,0.120421,1.511000,2.769000,35.017017,30.943501,
smooth,image06.jpg,11,18.592698,0.620188,0.411302,0.142438,1.508000,2.764000,33.576585,29.979132,
smooth,image06.jpg,12,27.889569,0.621748,0.411662,0.136534,1.507000,2.761000,50.875178,44.856709,
smooth,image06.jpg,13,27.890951,0.639940,0.412231,0.152267,1.505000,2.757000,49.408414,43.583697,
smooth,image06.jpg,14,18.590639,0.602650,0.411248,0.120955,1.508000,2.764000,34.931481,30.848152,
smooth,image06.jpg,15,18.586464,0.671497,0.412928,0.188046,1.502000,2.753000,30.927235,27.679147,
smooth,image06.jpg,16,27.928759,0.617971,0.411384,0.137443,1.508000,2.763000,50.888092,45.194287,
smooth,image06.jpg,17,27.890896,0.641249,0.411296,0.153742,1.508000,2.764000,49.361098,43.494642,
smooth,image06.jpg,18,18.590218,0.601708,0.411073,0.120848,1.509000,2.765000,34.949209,30.895747,
smooth,image06.jpg,19,18.590509,0.650061,0.410901,0.164313,1.509000,2.766000,32.319292,28.598099,
smooth,image07.jpg,0,-1.000000,-1.000000,-1.000000,-1.000000,-1.000000,-1.000000,-1.000000,28.598099,
smooth,image07.jpg,1,-1.000000,-1.000000,-1.000000,-1.000000,-1.000000,-1.000000,-1.000000,28.598099,
smooth,image07.jpg,2,-1.000000,-1.000000,-1.000000,-1.000000,-1.000000,-1.000000,-1.000000,28.598099,
smooth,image07.jpg,3,-1.000000,-1.000000,-1.000000,-1.000000,-1.000000,-1.000000,-1.000000,28.598099,
smooth,image07.jpg,4,-1.000000,-1.000000,-1.000000,-1.000000,-1.000000,-1.000000,-1.000000,28.598099,
smooth,image07.jpg,5,-1.000000,-1.000000,-1.000000,-1.000000,-1.000000,-1.000000,-1.000000,28.598099,
smooth,image07.jpg,6,-1.000000,-1.000000,-1.000000,-1.000000,-1.000000,-1.000000,-1.000000,28.598099,
smooth,image07.jpg,7,-1.000000,-1.000000,-1.000000,-1.000000,-1.000000,-1.000000,-1.000000,28.598099,
smooth,image07.jpg,8,-1.000000,-1.000000,-1.000000,-1.000000,-1.000000,-1.000000,-1.000000,28.598099,
smooth,image07.jpg,9,-1.000000,-1.000000,-1.000000,-1.000000,-1.000000,-1.000000,-1.000000,28.598099,
smooth,image07.jpg,10,-1.000000,-1.000000,-1.000000,-1.000000,-1.000000,-1.000000,-1.000000,28.598099,
smooth,image07.jpg,11,-1.000000,-1.000000,-1.000000,-1.000000,-1.000000,-1.000000,-1.000000,28.598099,
smooth,image07.jpg,12,-1.000000,-1.000000,-1.000000,-1.000000,-1.000000,-1.000000,-1.000000,28.598099,
smooth,image07.jpg,13,-1.000000,-1.000000,-1.000000,-1.000000,-1.000000,-1.000000,-1.000000,28.598099,
smooth,image07.jpg,14,-1.000000,-1.000000,-1.000000,-1.000000,-1.000000,-1.000000,-1.000000,28.598099,
smooth,image07.jpg,15,-1.000000,-1.000000,-1.000000,-1.000000,-1.000000,-1.000000,-1.000000,28.598099,
smooth,image07.jpg,16,-1.000000,-1.000000,-1.000000,-1.000000,-1.000000,-1.000000,-1.000000,28.598099,
smooth,image07.jpg,17,-1.000000,-1.000000,-1.000000,-1.000000,-1.000000,-1.000000,-1.000000,28.598099,
smooth,image07.jpg,18,-1.000000,-1.000000,-1.000000,-1.000000,-1.000000,-1.000000,-1.000000,28.598099,
smooth,image07.jpg,19,-1.000000,-1.000000,-1.000000,-1.000000,-1.000000,-1.000000,-1.000000,28.598099,